%YAML 1.1
%TAG !u! tag:unity3d.com,2011:
--- !u!1045 &1
EditorBuildSettings:
  m_ObjectHideFlags: 0
  serializedVersion: 2
  m_Scenes:
  - enabled: 1
    path: Assets/_GAMEASSETS/01_Scenes/UIScenes/MainMenuScene.unity
    guid: b17ab39b962d4744e8d7accf0c29a39c
  - enabled: 1
    path: Assets/_GAMEASSETS/01_Scenes/UIScenes/OptionsScene.unity
    guid: 9b7d43cda378ad24896089fdd05bfab9
  - enabled: 1
    path: Assets/_GAMEASSETS/01_Scenes/UIScenes/CreditsScene.unity
    guid: 99c050759c98b6a469d4bfa80d84c871
  - enabled: 1
    path: Assets/_GAMEASSETS/01_Scenes/GameScene.unity
    guid: 39ac3e60cc149b3419c579013dff0d3c
  - enabled: 1
    path: Assets/_GAMEASSETS/01_Scenes/OutroScene.unity
    guid: 068eefc67ab64b74ab2546f5e499d699
  m_configObjects:
    Unity.XR.Oculus.Settings: {fileID: 11400000, guid: bfa1182bd221b4ca89619141f66f1260,
      type: 2}
    Unity.XR.WindowsMR.Settings: {fileID: 11400000, guid: dc5a169419fa04987b057f65238cf3ba,
      type: 2}
    com.unity.xr.management.loader_settings: {fileID: 11400000, guid: 1a4c68ca72a83449f938d669337cb305,
      type: 2}
