%YAML 1.1
%TAG !u! tag:unity3d.com,2011:
--- !u!114 &11400000
MonoBehaviour:
  m_ObjectHideFlags: 0
  m_CorrespondingSourceObject: {fileID: 0}
  m_PrefabInstance: {fileID: 0}
  m_PrefabAsset: {fileID: 0}
  m_GameObject: {fileID: 0}
  m_Enabled: 1
  m_EditorHideFlags: 0
  m_Script: {fileID: 11500000, guid: 896f390ae2c54a6aaafad512b936d35d, type: 3}
  m_Name: Tipp6,5 (SucheWeg)
  m_EditorClassIdentifier: 
  tipTitle: Tipp
  tutorial: 0
  tipContent: Suche den Weg nach Hause.
