%YAML 1.1
%TAG !u! tag:unity3d.com,2011:
--- !u!114 &11400000
MonoBehaviour:
  m_ObjectHideFlags: 0
  m_CorrespondingSourceObject: {fileID: 0}
  m_PrefabInstance: {fileID: 0}
  m_PrefabAsset: {fileID: 0}
  m_GameObject: {fileID: 0}
  m_Enabled: 1
  m_EditorHideFlags: 0
  m_Script: {fileID: 11500000, guid: 07fb54170b5a4a3ba8cea30d24904500, type: 3}
  m_Name: BucketFull
  m_EditorClassIdentifier: 
  itemPrefab:
  - {fileID: 3341621579800413179, guid: 00632bee27c834944a5553b3d2916491, type: 3}
  itemIcon: {fileID: 21300000, guid: 90838aaa26b5d23429657bd59b1f6688, type: 3}
  itemName: Wassereimer
  itemDescription: Ein voller Holzeimer
  isDroppable: 1
