%YAML 1.1
%TAG !u! tag:unity3d.com,2011:
--- !u!114 &11400000
MonoBehaviour:
  m_ObjectHideFlags: 0
  m_CorrespondingSourceObject: {fileID: 0}
  m_PrefabInstance: {fileID: 0}
  m_PrefabAsset: {fileID: 0}
  m_GameObject: {fileID: 0}
  m_Enabled: 1
  m_EditorHideFlags: 0
  m_Script: {fileID: 11500000, guid: 07fb54170b5a4a3ba8cea30d24904500, type: 3}
  m_Name: Hammer
  m_EditorClassIdentifier: 
  itemPrefab:
  - {fileID: 3214369360007479835, guid: 175ff6a3e19b8254083ef4199a37076c, type: 3}
  itemIcon: {fileID: 21300000, guid: 993b921a63da9b847a454a0e0f2ba70b, type: 3}
  itemName: Hammer
  itemDescription: Ein normaler Hammer
  isDroppable: 1
