%YAML 1.1
%TAG !u! tag:unity3d.com,2011:
--- !u!114 &11400000
MonoBehaviour:
  m_ObjectHideFlags: 0
  m_CorrespondingSourceObject: {fileID: 0}
  m_PrefabInstance: {fileID: 0}
  m_PrefabAsset: {fileID: 0}
  m_GameObject: {fileID: 0}
  m_Enabled: 1
  m_EditorHideFlags: 0
  m_Script: {fileID: 11500000, guid: 149198d877e943f7897ddeaa0f676ce1, type: 3}
  m_Name: NeedFireToSleep
  m_EditorClassIdentifier: 
  character:
    character: 3
    characterName: Gretel
    characterColor: {r: 1, g: 0.9372549, b: 0.4862745, a: 1}
  text: Ohne Feuer sollten wir hier nicht ausruhen
  soundFile: {fileID: 8300000, guid: ee7b4414ca905ea4e8948ccf5edd412c, type: 3}
